electrodeSite,channel,visualization_x,visualization_y,diameter,hist_B04
A1,25,0,0,35,Prh
A2,32,0,500,35,Ect
A3,26,0,1000,35,TeA
A4,31,0,1500,35,TeA
A5,27,0,2000,35,AuV
A6,30,0,2500,35,Au1
A7,28,0,3000,35,AuD
A8,29,0,3500,35,V2L
AccelX,65,225,-200,35,outside_brain
AccelX2,68,1820,-200,35,outside_brain
AccelY,66,775,-200,35,outside_brain
AccelY2,69,2180,-200,35,outside_brain
AccelZ,67,1325,-200,35,outside_brain
AccelZ2,70,2540,-200,35,outside_brain
B1,24,550,0,35,Ect
B2,19,550,500,35,TeA
B3,23,550,1000,35,AuV
B4,20,550,1500,35,Au1
B5,22,550,2000,35,Au1
B6,18,550,2500,35,Au1
B7,21,550,3000,35,PtPC
B8,17,550,3500,35,V2L
C1,14,1100,0,35,Ect
C2,9,1100,500,35,TeA
C3,13,1100,1000,35,AuV
C4,10,1100,1500,35,Au1
C5,15,1100,2000,35,Au1
C6,11,1100,2500,35,Au1
C7,16,1100,3000,35,AuD
C8,12,1100,3500,35,V2L
D1,1,1650,0,35,Ect
D2,8,1650,500,35,TeA
D3,2,1650,1000,35,AuV
D4,7,1650,1500,35,Au1
D5,3,1650,2000,35,Au1
D6,6,1650,2500,35,Au1
D7,4,1650,3000,35,AuD
D8,5,1650,3500,35,AuD
E1,57,2000,0,35,PrL
E10,53,2000,1350,35,PrL
E11,62,2000,1500,35,Cg1
E12,54,2000,1650,35,Cg1
E13,63,2000,1800,35,Cg1
E14,55,2000,1950,35,Cg1
E15,64,2000,2100,35,Cg1
E16,56,2000,2250,35,Cg1
E2,51,2000,150,35,PrL
E3,58,2000,300,35,PrL
E4,52,2000,450,35,PrL
E5,59,2000,600,35,PrL
E6,50,2000,750,35,PrL
E7,60,2000,900,35,PrL
E8,49,2000,1050,35,PrL
E9,61,2000,1200,35,PrL
F1,46,2360,0,35,PrL
F10,36,2360,1350,35,Cg1
F11,43,2360,1500,35,Cg1
F12,35,2360,1650,35,Cg1
F13,42,2360,1800,35,Cg1
F14,34,2360,1950,35,Cg1
F15,41,2360,2100,35,Cg1
F16,33,2360,2250,35,Cg1
F2,40,2360,150,35,PrL
F3,45,2360,300,35,PrL
F4,39,2360,450,35,PrL
F5,47,2360,600,35,PrL
F6,38,2360,750,35,PrL
F7,48,2360,900,35,PrL
F8,37,2360,1050,35,PrL
F9,44,2360,1200,35,Cg1
